/Users/fani/IdeaProjects/BigProject/src/main/java/com/mycompany/bigproject/moduleA/ModuleA.java
/Users/fani/IdeaProjects/BigProject/src/main/java/com/mycompany/bigproject/Main.java
/Users/fani/IdeaProjects/BigProject/src/main/java/com/mycompany/bigproject/moduleA/impl/ModuleAImpl.java
/Users/fani/IdeaProjects/BigProject/src/main/java/com/mycompany/bigproject/moduleA/Activator.java
